<?xml version="1.0" encoding="utf-8"?>
<!-- Generator: Adobe Illustrator 19.2.1, SVG Export Plug-In . SVG Version: 6.00 Build 0)  -->
<svg version="1.1" id="Layer_1" xmlns="http://www.w3.org/2000/svg" xmlns:xlink="http://www.w3.org/1999/xlink" x="0px" y="0px"
	 viewBox="0 0 18 25" style="enable-background:new 0 0 18 25;" xml:space="preserve">
<style type="text/css">
	.st0{fill-rule:evenodd;clip-rule:evenodd;}
</style>
<g>
	<path class="st0" d="M14.9,3.6l-0.7,2.9c0,0.3-0.3,0.6-0.7,0.6c-0.4,0-5.2,0-5.2,0c-0.6,0-1.1,0.4-1.1,1v0.6c0,0.6,0.5,1.1,1.1,1.1
		c0,0,4,0,4.4,0c0.4,0,0.7,0.3,0.7,0.8c-0.1,0.4-0.6,2.7-0.7,2.9c0,0.2-0.3,0.6-0.6,0.6c-0.4-0.1-3.6-0.1-3.6,0
		c-0.8-0.1-1,0-1.5,0.5c-0.4,0.6-4.3,5.5-4.4,5.5c0,0,0,0,0,0V3.4c0-0.3,0.3-0.6,0.7-0.6h10.9C14.7,2.8,15,3.1,14.9,3.6 M2.4,0
		C0.5,0,0,1.4,0,2.3v21.1c0,1.1,0.5,1.4,0.8,1.5c0.3,0.2,1.1,0.3,1.6-0.3c0,0.1,6.4-7.3,6.5-7.5C9,17,9.1,17,9.1,16.9
		c0.1,0.1,2.7,0.1,4.1,0c1.7,0.1,2.1-1.1,2.3-1.8c0.1-0.6,1.9-9.2,2.4-11.9C18.3,1.1,17.8,0,15.8,0H2.4z"/>
</g>
</svg>
