<?xml version="1.0" encoding="utf-8"?>
<!-- Generator: Adobe Illustrator 19.2.1, SVG Export Plug-In . SVG Version: 6.00 Build 0)  -->
<svg version="1.1" id="Layer_1" xmlns="http://www.w3.org/2000/svg" xmlns:xlink="http://www.w3.org/1999/xlink" x="0px" y="0px"
	 viewBox="0 0 25 41" style="enable-background:new 0 0 25 41;" xml:space="preserve">
<style type="text/css">
	.st0{fill:#00C1FF;}
</style>
<g>
	<g>
		<path class="st0" d="M10.7,12.7c0,1,0.8,1.8,1.8,1.8c1,0,1.8-0.8,1.8-1.8V9.3c0-1-0.8-1.8-1.8-1.8c-1,0-1.8,0.8-1.8,1.8V12.7z
			 M13.9,0v5C15.7,5.6,17,7.3,17,9.3v3.4c0,2-1.3,3.7-3.2,4.3v3.4h-2.7v-3.4C9.3,16.5,8,14.8,8,12.7V9.3c0-2,1.3-3.7,3.2-4.3V0
			C2.3,0.6,0,6.7,0,10.9v19.2C0,34.4,2.5,41,12.5,41c10,0,12.5-6.6,12.5-10.9V10.9C25,6.7,22.7,0.6,13.9,0z"/>
	</g>
</g>
</svg>
